GEOG458_GroupLab1
…
library(plyr)
library(dplyr)
library(tidyverse)
library(ggplot2)
library(reshape2)
object1 = read.csv("China_EO_49to17.csv" ,fileEncoding="latin1")
object2 = as.tibble(object1)
datC=object2
datC$Year=seq(from=1949, to=2017)
datC=datC[order(datC$Year),]
# substitute years to numerical data
datC

## # A tibble: 69 x 63
##     Year Beijing_Enterpr~ Beijing_Output Tianjin_Enterpr~ Tianjin_Output
##    <int>            <int>          <dbl>            <int>          <dbl>
##  1  1949            21055           1.47             4708           7.29
##  2  1950            23461           3.07             6358          11.6 
##  3  1951            29839           5.99             9190          17.3 
##  4  1952            34386           7.19               82          18.5 
##  5  1953            38632          10.3              8459          26.2 
##  6  1954            39595          11.9              8918          29.4 
##  7  1955            32036          13.2              7250          30.1 
##  8  1956             3574          18.2              2710          35.7 
##  9  1957             4234          19.9              1049          38.6 
## 10  1958             2084          42.8              2376          61.9 
## # ... with 59 more rows, and 58 more variables: Hebei_Enterprise <int>,
## #   Hebei_Output <dbl>, Shanxi_Enterprise <int>, Shanxi_Output <dbl>,
## #   InnerMongolia_Enterprise <int>, InnerMongolia_Output <dbl>,
## #   Liaoning_Enterprise <int>, Liaoning_Output <dbl>,
## #   Jilin_Enterprise <int>, Jilin_Output <dbl>,
## #   Heilongjiang_Enterprise <int>, Heilongjiang_Output <dbl>,
## #   Shanghai_Enterprise <int>, Shanghai_Output <dbl>,
## #   Jiangsu_Enterprise <int>, Jiangsu_Output <dbl>,
## #   Zhejiang_Enterprise <int>, Zhejiang_Output <dbl>,
…
